sim/sim.log
# vsim -debugDB -coverage -l test_exhaustive.log -c test_bench -voptargs="+access+cover=bcesft" -assertdebug -do "coverage save -onexit test_exhaustive.ucdb; log -r /*;run -all" 
# Start time: 22:56:33 on Mar 23,2026
# ** Note: (vsim-3813) Design is being optimized due to module recompilation...
# ** Note: (vsim-8611) Generating debug db.
# ** Warning: (vopt-4308) Enabling visibility using +acc is recommended with debug flow.
# ** Note: (vsim-12126) Error and warning message counts have been restored: Errors=0, Warnings=1.
# //  Questa Intel Starter FPGA Edition-64
# //  Version 2024.3 linux_x86_64 Sep 10 2024
# //
# // Unpublished work. Copyright 2024 Siemens
# //
# // This material contains trade secrets or otherwise confidential information
# // owned by Siemens Industry Software Inc. or its affiliates (collectively,
# // "SISW"), or its licensors. Access to and use of this information is strictly
# // limited as set forth in the Customer's applicable agreements with SISW.
# //
# // This material may not be copied, distributed, or otherwise disclosed outside
# // of the Customer's facilities without the express written permission of SISW,
# // and may not be used in any way not expressly authorized by SISW.
# //
# Loading work.test_bench(fast)
# Loading work.rca_4bit(fast)
# Loading work.full_adder(fast)
# ** Note: (vsim-8900) Creating design debug database vsim.dbg.
# coverage save -onexit test_exhaustive.ucdb
#  log -r /*
# run -all
# ===========================================================================
# ======================= TEST NAME : test_exhaustive =======================
# ===========================================================================
# ITEM: Brute-force check
# ----------------------------------------------------------------------------------------------------------------------
# 	CASE: a = 0000, b = 0000, cin = 0
# t =                   26. PASSED. Exp: 00000, Act: 00000
# 	CASE: a = 0000, b = 0000, cin = 1
# t =                   27. PASSED. Exp: 00001, Act: 00001
# 	CASE: a = 0000, b = 0001, cin = 0
# t =                   28. PASSED. Exp: 00001, Act: 00001
# 	CASE: a = 0000, b = 0001, cin = 1
# t =                   29. PASSED. Exp: 00010, Act: 00010
# 	CASE: a = 0000, b = 0010, cin = 0
# t =                   30. PASSED. Exp: 00010, Act: 00010
# 	CASE: a = 0000, b = 0010, cin = 1
# t =                   31. PASSED. Exp: 00011, Act: 00011
# 	CASE: a = 0000, b = 0011, cin = 0
# t =                   32. PASSED. Exp: 00011, Act: 00011
# 	CASE: a = 0000, b = 0011, cin = 1
# t =                   33. PASSED. Exp: 00100, Act: 00100
# 	CASE: a = 0000, b = 0100, cin = 0
# t =                   34. PASSED. Exp: 00100, Act: 00100
# 	CASE: a = 0000, b = 0100, cin = 1
# t =                   35. PASSED. Exp: 00101, Act: 00101
# 	CASE: a = 0000, b = 0101, cin = 0
# t =                   36. PASSED. Exp: 00101, Act: 00101
# 	CASE: a = 0000, b = 0101, cin = 1
# t =                   37. PASSED. Exp: 00110, Act: 00110
# 	CASE: a = 0000, b = 0110, cin = 0
# t =                   38. PASSED. Exp: 00110, Act: 00110
# 	CASE: a = 0000, b = 0110, cin = 1
# t =                   39. PASSED. Exp: 00111, Act: 00111
# 	CASE: a = 0000, b = 0111, cin = 0
# t =                   40. PASSED. Exp: 00111, Act: 00111
# 	CASE: a = 0000, b = 0111, cin = 1
# t =                   41. PASSED. Exp: 01000, Act: 01000
# 	CASE: a = 0000, b = 1000, cin = 0
# t =                   42. PASSED. Exp: 01000, Act: 01000
# 	CASE: a = 0000, b = 1000, cin = 1
# t =                   43. PASSED. Exp: 01001, Act: 01001
# 	CASE: a = 0000, b = 1001, cin = 0
# t =                   44. PASSED. Exp: 01001, Act: 01001
# 	CASE: a = 0000, b = 1001, cin = 1
# t =                   45. PASSED. Exp: 01010, Act: 01010
# 	CASE: a = 0000, b = 1010, cin = 0
# t =                   46. PASSED. Exp: 01010, Act: 01010
# 	CASE: a = 0000, b = 1010, cin = 1
# t =                   47. PASSED. Exp: 01011, Act: 01011
# 	CASE: a = 0000, b = 1011, cin = 0
# t =                   48. PASSED. Exp: 01011, Act: 01011
# 	CASE: a = 0000, b = 1011, cin = 1
# t =                   49. PASSED. Exp: 01100, Act: 01100
# 	CASE: a = 0000, b = 1100, cin = 0
# t =                   50. PASSED. Exp: 01100, Act: 01100
# 	CASE: a = 0000, b = 1100, cin = 1
# t =                   51. PASSED. Exp: 01101, Act: 01101
# 	CASE: a = 0000, b = 1101, cin = 0
# t =                   52. PASSED. Exp: 01101, Act: 01101
# 	CASE: a = 0000, b = 1101, cin = 1
# t =                   53. PASSED. Exp: 01110, Act: 01110
# 	CASE: a = 0000, b = 1110, cin = 0
# t =                   54. PASSED. Exp: 01110, Act: 01110
# 	CASE: a = 0000, b = 1110, cin = 1
# t =                   55. PASSED. Exp: 01111, Act: 01111
# 	CASE: a = 0000, b = 1111, cin = 0
# t =                   56. PASSED. Exp: 01111, Act: 01111
# 	CASE: a = 0000, b = 1111, cin = 1
# t =                   57. PASSED. Exp: 10000, Act: 10000
# 	CASE: a = 0001, b = 0000, cin = 0
# t =                   58. PASSED. Exp: 00001, Act: 00001
# 	CASE: a = 0001, b = 0000, cin = 1
# t =                   59. PASSED. Exp: 00010, Act: 00010
# 	CASE: a = 0001, b = 0001, cin = 0
# t =                   60. PASSED. Exp: 00010, Act: 00010
# 	CASE: a = 0001, b = 0001, cin = 1
# t =                   61. PASSED. Exp: 00011, Act: 00011
# 	CASE: a = 0001, b = 0010, cin = 0
# t =                   62. PASSED. Exp: 00011, Act: 00011
# 	CASE: a = 0001, b = 0010, cin = 1
# t =                   63. PASSED. Exp: 00100, Act: 00100
# 	CASE: a = 0001, b = 0011, cin = 0
# t =                   64. PASSED. Exp: 00100, Act: 00100
# 	CASE: a = 0001, b = 0011, cin = 1
# t =                   65. PASSED. Exp: 00101, Act: 00101
# 	CASE: a = 0001, b = 0100, cin = 0
# t =                   66. PASSED. Exp: 00101, Act: 00101
# 	CASE: a = 0001, b = 0100, cin = 1
# t =                   67. PASSED. Exp: 00110, Act: 00110
# 	CASE: a = 0001, b = 0101, cin = 0
# t =                   68. PASSED. Exp: 00110, Act: 00110
# 	CASE: a = 0001, b = 0101, cin = 1
# t =                   69. PASSED. Exp: 00111, Act: 00111
# 	CASE: a = 0001, b = 0110, cin = 0
# t =                   70. PASSED. Exp: 00111, Act: 00111
# 	CASE: a = 0001, b = 0110, cin = 1
# t =                   71. PASSED. Exp: 01000, Act: 01000
# 	CASE: a = 0001, b = 0111, cin = 0
# t =                   72. PASSED. Exp: 01000, Act: 01000
# 	CASE: a = 0001, b = 0111, cin = 1
# t =                   73. PASSED. Exp: 01001, Act: 01001
# 	CASE: a = 0001, b = 1000, cin = 0
# t =                   74. PASSED. Exp: 01001, Act: 01001
# 	CASE: a = 0001, b = 1000, cin = 1
# t =                   75. PASSED. Exp: 01010, Act: 01010
# 	CASE: a = 0001, b = 1001, cin = 0
# t =                   76. PASSED. Exp: 01010, Act: 01010
# 	CASE: a = 0001, b = 1001, cin = 1
# t =                   77. PASSED. Exp: 01011, Act: 01011
# 	CASE: a = 0001, b = 1010, cin = 0
# t =                   78. PASSED. Exp: 01011, Act: 01011
# 	CASE: a = 0001, b = 1010, cin = 1
# t =                   79. PASSED. Exp: 01100, Act: 01100
# 	CASE: a = 0001, b = 1011, cin = 0
# t =                   80. PASSED. Exp: 01100, Act: 01100
# 	CASE: a = 0001, b = 1011, cin = 1
# t =                   81. PASSED. Exp: 01101, Act: 01101
# 	CASE: a = 0001, b = 1100, cin = 0
# t =                   82. PASSED. Exp: 01101, Act: 01101
# 	CASE: a = 0001, b = 1100, cin = 1
# t =                   83. PASSED. Exp: 01110, Act: 01110
# 	CASE: a = 0001, b = 1101, cin = 0
# t =                   84. PASSED. Exp: 01110, Act: 01110
# 	CASE: a = 0001, b = 1101, cin = 1
# t =                   85. PASSED. Exp: 01111, Act: 01111
# 	CASE: a = 0001, b = 1110, cin = 0
# t =                   86. PASSED. Exp: 01111, Act: 01111
# 	CASE: a = 0001, b = 1110, cin = 1
# t =                   87. PASSED. Exp: 10000, Act: 10000
# 	CASE: a = 0001, b = 1111, cin = 0
# t =                   88. PASSED. Exp: 10000, Act: 10000
# 	CASE: a = 0001, b = 1111, cin = 1
# t =                   89. PASSED. Exp: 10001, Act: 10001
# 	CASE: a = 0010, b = 0000, cin = 0
# t =                   90. PASSED. Exp: 00010, Act: 00010
# 	CASE: a = 0010, b = 0000, cin = 1
# t =                   91. PASSED. Exp: 00011, Act: 00011
# 	CASE: a = 0010, b = 0001, cin = 0
# t =                   92. PASSED. Exp: 00011, Act: 00011
# 	CASE: a = 0010, b = 0001, cin = 1
# t =                   93. PASSED. Exp: 00100, Act: 00100
# 	CASE: a = 0010, b = 0010, cin = 0
# t =                   94. PASSED. Exp: 00100, Act: 00100
# 	CASE: a = 0010, b = 0010, cin = 1
# t =                   95. PASSED. Exp: 00101, Act: 00101
# 	CASE: a = 0010, b = 0011, cin = 0
# t =                   96. PASSED. Exp: 00101, Act: 00101
# 	CASE: a = 0010, b = 0011, cin = 1
# t =                   97. PASSED. Exp: 00110, Act: 00110
# 	CASE: a = 0010, b = 0100, cin = 0
# t =                   98. PASSED. Exp: 00110, Act: 00110
# 	CASE: a = 0010, b = 0100, cin = 1
# t =                   99. PASSED. Exp: 00111, Act: 00111
# 	CASE: a = 0010, b = 0101, cin = 0
# t =                  100. PASSED. Exp: 00111, Act: 00111
# 	CASE: a = 0010, b = 0101, cin = 1
# t =                  101. PASSED. Exp: 01000, Act: 01000
# 	CASE: a = 0010, b = 0110, cin = 0
# t =                  102. PASSED. Exp: 01000, Act: 01000
# 	CASE: a = 0010, b = 0110, cin = 1
# t =                  103. PASSED. Exp: 01001, Act: 01001
# 	CASE: a = 0010, b = 0111, cin = 0
# t =                  104. PASSED. Exp: 01001, Act: 01001
# 	CASE: a = 0010, b = 0111, cin = 1
# t =                  105. PASSED. Exp: 01010, Act: 01010
# 	CASE: a = 0010, b = 1000, cin = 0
# t =                  106. PASSED. Exp: 01010, Act: 01010
# 	CASE: a = 0010, b = 1000, cin = 1
# t =                  107. PASSED. Exp: 01011, Act: 01011
# 	CASE: a = 0010, b = 1001, cin = 0
# t =                  108. PASSED. Exp: 01011, Act: 01011
# 	CASE: a = 0010, b = 1001, cin = 1
# t =                  109. PASSED. Exp: 01100, Act: 01100
# 	CASE: a = 0010, b = 1010, cin = 0
# t =                  110. PASSED. Exp: 01100, Act: 01100
# 	CASE: a = 0010, b = 1010, cin = 1
# t =                  111. PASSED. Exp: 01101, Act: 01101
# 	CASE: a = 0010, b = 1011, cin = 0
# t =                  112. PASSED. Exp: 01101, Act: 01101
# 	CASE: a = 0010, b = 1011, cin = 1
# t =                  113. PASSED. Exp: 01110, Act: 01110
# 	CASE: a = 0010, b = 1100, cin = 0
# t =                  114. PASSED. Exp: 01110, Act: 01110
# 	CASE: a = 0010, b = 1100, cin = 1
# t =                  115. PASSED. Exp: 01111, Act: 01111
# 	CASE: a = 0010, b = 1101, cin = 0
# t =                  116. PASSED. Exp: 01111, Act: 01111
# 	CASE: a = 0010, b = 1101, cin = 1
# t =                  117. PASSED. Exp: 10000, Act: 10000
# 	CASE: a = 0010, b = 1110, cin = 0
# t =                  118. PASSED. Exp: 10000, Act: 10000
# 	CASE: a = 0010, b = 1110, cin = 1
# t =                  119. PASSED. Exp: 10001, Act: 10001
# 	CASE: a = 0010, b = 1111, cin = 0
# t =                  120. PASSED. Exp: 10001, Act: 10001
# 	CASE: a = 0010, b = 1111, cin = 1
# t =                  121. PASSED. Exp: 10010, Act: 10010
# 	CASE: a = 0011, b = 0000, cin = 0
# t =                  122. PASSED. Exp: 00011, Act: 00011
# 	CASE: a = 0011, b = 0000, cin = 1
# t =                  123. PASSED. Exp: 00100, Act: 00100
# 	CASE: a = 0011, b = 0001, cin = 0
# t =                  124. PASSED. Exp: 00100, Act: 00100
# 	CASE: a = 0011, b = 0001, cin = 1
# t =                  125. PASSED. Exp: 00101, Act: 00101
# 	CASE: a = 0011, b = 0010, cin = 0
# t =                  126. PASSED. Exp: 00101, Act: 00101
# 	CASE: a = 0011, b = 0010, cin = 1
# t =                  127. PASSED. Exp: 00110, Act: 00110
# 	CASE: a = 0011, b = 0011, cin = 0
# t =                  128. PASSED. Exp: 00110, Act: 00110
# 	CASE: a = 0011, b = 0011, cin = 1
# t =                  129. PASSED. Exp: 00111, Act: 00111
# 	CASE: a = 0011, b = 0100, cin = 0
# t =                  130. PASSED. Exp: 00111, Act: 00111
# 	CASE: a = 0011, b = 0100, cin = 1
# t =                  131. PASSED. Exp: 01000, Act: 01000
# 	CASE: a = 0011, b = 0101, cin = 0
# t =                  132. PASSED. Exp: 01000, Act: 01000
# 	CASE: a = 0011, b = 0101, cin = 1
# t =                  133. PASSED. Exp: 01001, Act: 01001
# 	CASE: a = 0011, b = 0110, cin = 0
# t =                  134. PASSED. Exp: 01001, Act: 01001
# 	CASE: a = 0011, b = 0110, cin = 1
# t =                  135. PASSED. Exp: 01010, Act: 01010
# 	CASE: a = 0011, b = 0111, cin = 0
# t =                  136. PASSED. Exp: 01010, Act: 01010
# 	CASE: a = 0011, b = 0111, cin = 1
# t =                  137. PASSED. Exp: 01011, Act: 01011
# 	CASE: a = 0011, b = 1000, cin = 0
# t =                  138. PASSED. Exp: 01011, Act: 01011
# 	CASE: a = 0011, b = 1000, cin = 1
# t =                  139. PASSED. Exp: 01100, Act: 01100
# 	CASE: a = 0011, b = 1001, cin = 0
# t =                  140. PASSED. Exp: 01100, Act: 01100
# 	CASE: a = 0011, b = 1001, cin = 1
# t =                  141. PASSED. Exp: 01101, Act: 01101
# 	CASE: a = 0011, b = 1010, cin = 0
# t =                  142. PASSED. Exp: 01101, Act: 01101
# 	CASE: a = 0011, b = 1010, cin = 1
# t =                  143. PASSED. Exp: 01110, Act: 01110
# 	CASE: a = 0011, b = 1011, cin = 0
# t =                  144. PASSED. Exp: 01110, Act: 01110
# 	CASE: a = 0011, b = 1011, cin = 1
# t =                  145. PASSED. Exp: 01111, Act: 01111
# 	CASE: a = 0011, b = 1100, cin = 0
# t =                  146. PASSED. Exp: 01111, Act: 01111
# 	CASE: a = 0011, b = 1100, cin = 1
# t =                  147. PASSED. Exp: 10000, Act: 10000
# 	CASE: a = 0011, b = 1101, cin = 0
# t =                  148. PASSED. Exp: 10000, Act: 10000
# 	CASE: a = 0011, b = 1101, cin = 1
# t =                  149. PASSED. Exp: 10001, Act: 10001
# 	CASE: a = 0011, b = 1110, cin = 0
# t =                  150. PASSED. Exp: 10001, Act: 10001
# 	CASE: a = 0011, b = 1110, cin = 1
# t =                  151. PASSED. Exp: 10010, Act: 10010
# 	CASE: a = 0011, b = 1111, cin = 0
# t =                  152. PASSED. Exp: 10010, Act: 10010
# 	CASE: a = 0011, b = 1111, cin = 1
# t =                  153. PASSED. Exp: 10011, Act: 10011
# 	CASE: a = 0100, b = 0000, cin = 0
# t =                  154. PASSED. Exp: 00100, Act: 00100
# 	CASE: a = 0100, b = 0000, cin = 1
# t =                  155. PASSED. Exp: 00101, Act: 00101
# 	CASE: a = 0100, b = 0001, cin = 0
# t =                  156. PASSED. Exp: 00101, Act: 00101
# 	CASE: a = 0100, b = 0001, cin = 1
# t =                  157. PASSED. Exp: 00110, Act: 00110
# 	CASE: a = 0100, b = 0010, cin = 0
# t =                  158. PASSED. Exp: 00110, Act: 00110
# 	CASE: a = 0100, b = 0010, cin = 1
# t =                  159. PASSED. Exp: 00111, Act: 00111
# 	CASE: a = 0100, b = 0011, cin = 0
# t =                  160. PASSED. Exp: 00111, Act: 00111
# 	CASE: a = 0100, b = 0011, cin = 1
# t =                  161. PASSED. Exp: 01000, Act: 01000
# 	CASE: a = 0100, b = 0100, cin = 0
# t =                  162. PASSED. Exp: 01000, Act: 01000
# 	CASE: a = 0100, b = 0100, cin = 1
# t =                  163. PASSED. Exp: 01001, Act: 01001
# 	CASE: a = 0100, b = 0101, cin = 0
# t =                  164. PASSED. Exp: 01001, Act: 01001
# 	CASE: a = 0100, b = 0101, cin = 1
# t =                  165. PASSED. Exp: 01010, Act: 01010
# 	CASE: a = 0100, b = 0110, cin = 0
# t =                  166. PASSED. Exp: 01010, Act: 01010
# 	CASE: a = 0100, b = 0110, cin = 1
# t =                  167. PASSED. Exp: 01011, Act: 01011
# 	CASE: a = 0100, b = 0111, cin = 0
# t =                  168. PASSED. Exp: 01011, Act: 01011
# 	CASE: a = 0100, b = 0111, cin = 1
# t =                  169. PASSED. Exp: 01100, Act: 01100
# 	CASE: a = 0100, b = 1000, cin = 0
# t =                  170. PASSED. Exp: 01100, Act: 01100
# 	CASE: a = 0100, b = 1000, cin = 1
# t =                  171. PASSED. Exp: 01101, Act: 01101
# 	CASE: a = 0100, b = 1001, cin = 0
# t =                  172. PASSED. Exp: 01101, Act: 01101
# 	CASE: a = 0100, b = 1001, cin = 1
# t =                  173. PASSED. Exp: 01110, Act: 01110
# 	CASE: a = 0100, b = 1010, cin = 0
# t =                  174. PASSED. Exp: 01110, Act: 01110
# 	CASE: a = 0100, b = 1010, cin = 1
# t =                  175. PASSED. Exp: 01111, Act: 01111
# 	CASE: a = 0100, b = 1011, cin = 0
# t =                  176. PASSED. Exp: 01111, Act: 01111
# 	CASE: a = 0100, b = 1011, cin = 1
# t =                  177. PASSED. Exp: 10000, Act: 10000
# 	CASE: a = 0100, b = 1100, cin = 0
# t =                  178. PASSED. Exp: 10000, Act: 10000
# 	CASE: a = 0100, b = 1100, cin = 1
# t =                  179. PASSED. Exp: 10001, Act: 10001
# 	CASE: a = 0100, b = 1101, cin = 0
# t =                  180. PASSED. Exp: 10001, Act: 10001
# 	CASE: a = 0100, b = 1101, cin = 1
# t =                  181. PASSED. Exp: 10010, Act: 10010
# 	CASE: a = 0100, b = 1110, cin = 0
# t =                  182. PASSED. Exp: 10010, Act: 10010
# 	CASE: a = 0100, b = 1110, cin = 1
# t =                  183. PASSED. Exp: 10011, Act: 10011
# 	CASE: a = 0100, b = 1111, cin = 0
# t =                  184. PASSED. Exp: 10011, Act: 10011
# 	CASE: a = 0100, b = 1111, cin = 1
# t =                  185. PASSED. Exp: 10100, Act: 10100
# 	CASE: a = 0101, b = 0000, cin = 0
# t =                  186. PASSED. Exp: 00101, Act: 00101
# 	CASE: a = 0101, b = 0000, cin = 1
# t =                  187. PASSED. Exp: 00110, Act: 00110
# 	CASE: a = 0101, b = 0001, cin = 0
# t =                  188. PASSED. Exp: 00110, Act: 00110
# 	CASE: a = 0101, b = 0001, cin = 1
# t =                  189. PASSED. Exp: 00111, Act: 00111
# 	CASE: a = 0101, b = 0010, cin = 0
# t =                  190. PASSED. Exp: 00111, Act: 00111
# 	CASE: a = 0101, b = 0010, cin = 1
# t =                  191. PASSED. Exp: 01000, Act: 01000
# 	CASE: a = 0101, b = 0011, cin = 0
# t =                  192. PASSED. Exp: 01000, Act: 01000
# 	CASE: a = 0101, b = 0011, cin = 1
# t =                  193. PASSED. Exp: 01001, Act: 01001
# 	CASE: a = 0101, b = 0100, cin = 0
# t =                  194. PASSED. Exp: 01001, Act: 01001
# 	CASE: a = 0101, b = 0100, cin = 1
# t =                  195. PASSED. Exp: 01010, Act: 01010
# 	CASE: a = 0101, b = 0101, cin = 0
# t =                  196. PASSED. Exp: 01010, Act: 01010
# 	CASE: a = 0101, b = 0101, cin = 1
# t =                  197. PASSED. Exp: 01011, Act: 01011
# 	CASE: a = 0101, b = 0110, cin = 0
# t =                  198. PASSED. Exp: 01011, Act: 01011
# 	CASE: a = 0101, b = 0110, cin = 1
# t =                  199. PASSED. Exp: 01100, Act: 01100
# 	CASE: a = 0101, b = 0111, cin = 0
# t =                  200. PASSED. Exp: 01100, Act: 01100
# 	CASE: a = 0101, b = 0111, cin = 1
# t =                  201. PASSED. Exp: 01101, Act: 01101
# 	CASE: a = 0101, b = 1000, cin = 0
# t =                  202. PASSED. Exp: 01101, Act: 01101
# 	CASE: a = 0101, b = 1000, cin = 1
# t =                  203. PASSED. Exp: 01110, Act: 01110
# 	CASE: a = 0101, b = 1001, cin = 0
# t =                  204. PASSED. Exp: 01110, Act: 01110
# 	CASE: a = 0101, b = 1001, cin = 1
# t =                  205. PASSED. Exp: 01111, Act: 01111
# 	CASE: a = 0101, b = 1010, cin = 0
# t =                  206. PASSED. Exp: 01111, Act: 01111
# 	CASE: a = 0101, b = 1010, cin = 1
# t =                  207. PASSED. Exp: 10000, Act: 10000
# 	CASE: a = 0101, b = 1011, cin = 0
# t =                  208. PASSED. Exp: 10000, Act: 10000
# 	CASE: a = 0101, b = 1011, cin = 1
# t =                  209. PASSED. Exp: 10001, Act: 10001
# 	CASE: a = 0101, b = 1100, cin = 0
# t =                  210. PASSED. Exp: 10001, Act: 10001
# 	CASE: a = 0101, b = 1100, cin = 1
# t =                  211. PASSED. Exp: 10010, Act: 10010
# 	CASE: a = 0101, b = 1101, cin = 0
# t =                  212. PASSED. Exp: 10010, Act: 10010
# 	CASE: a = 0101, b = 1101, cin = 1
# t =                  213. PASSED. Exp: 10011, Act: 10011
# 	CASE: a = 0101, b = 1110, cin = 0
# t =                  214. PASSED. Exp: 10011, Act: 10011
# 	CASE: a = 0101, b = 1110, cin = 1
# t =                  215. PASSED. Exp: 10100, Act: 10100
# 	CASE: a = 0101, b = 1111, cin = 0
# t =                  216. PASSED. Exp: 10100, Act: 10100
# 	CASE: a = 0101, b = 1111, cin = 1
# t =                  217. PASSED. Exp: 10101, Act: 10101
# 	CASE: a = 0110, b = 0000, cin = 0
# t =                  218. PASSED. Exp: 00110, Act: 00110
# 	CASE: a = 0110, b = 0000, cin = 1
# t =                  219. PASSED. Exp: 00111, Act: 00111
# 	CASE: a = 0110, b = 0001, cin = 0
# t =                  220. PASSED. Exp: 00111, Act: 00111
# 	CASE: a = 0110, b = 0001, cin = 1
# t =                  221. PASSED. Exp: 01000, Act: 01000
# 	CASE: a = 0110, b = 0010, cin = 0
# t =                  222. PASSED. Exp: 01000, Act: 01000
# 	CASE: a = 0110, b = 0010, cin = 1
# t =                  223. PASSED. Exp: 01001, Act: 01001
# 	CASE: a = 0110, b = 0011, cin = 0
# t =                  224. PASSED. Exp: 01001, Act: 01001
# 	CASE: a = 0110, b = 0011, cin = 1
# t =                  225. PASSED. Exp: 01010, Act: 01010
# 	CASE: a = 0110, b = 0100, cin = 0
# t =                  226. PASSED. Exp: 01010, Act: 01010
# 	CASE: a = 0110, b = 0100, cin = 1
# t =                  227. PASSED. Exp: 01011, Act: 01011
# 	CASE: a = 0110, b = 0101, cin = 0
# t =                  228. PASSED. Exp: 01011, Act: 01011
# 	CASE: a = 0110, b = 0101, cin = 1
# t =                  229. PASSED. Exp: 01100, Act: 01100
# 	CASE: a = 0110, b = 0110, cin = 0
# t =                  230. PASSED. Exp: 01100, Act: 01100
# 	CASE: a = 0110, b = 0110, cin = 1
# t =                  231. PASSED. Exp: 01101, Act: 01101
# 	CASE: a = 0110, b = 0111, cin = 0
# t =                  232. PASSED. Exp: 01101, Act: 01101
# 	CASE: a = 0110, b = 0111, cin = 1
# t =                  233. PASSED. Exp: 01110, Act: 01110
# 	CASE: a = 0110, b = 1000, cin = 0
# t =                  234. PASSED. Exp: 01110, Act: 01110
# 	CASE: a = 0110, b = 1000, cin = 1
# t =                  235. PASSED. Exp: 01111, Act: 01111
# 	CASE: a = 0110, b = 1001, cin = 0
# t =                  236. PASSED. Exp: 01111, Act: 01111
# 	CASE: a = 0110, b = 1001, cin = 1
# t =                  237. PASSED. Exp: 10000, Act: 10000
# 	CASE: a = 0110, b = 1010, cin = 0
# t =                  238. PASSED. Exp: 10000, Act: 10000
# 	CASE: a = 0110, b = 1010, cin = 1
# t =                  239. PASSED. Exp: 10001, Act: 10001
# 	CASE: a = 0110, b = 1011, cin = 0
# t =                  240. PASSED. Exp: 10001, Act: 10001
# 	CASE: a = 0110, b = 1011, cin = 1
# t =                  241. PASSED. Exp: 10010, Act: 10010
# 	CASE: a = 0110, b = 1100, cin = 0
# t =                  242. PASSED. Exp: 10010, Act: 10010
# 	CASE: a = 0110, b = 1100, cin = 1
# t =                  243. PASSED. Exp: 10011, Act: 10011
# 	CASE: a = 0110, b = 1101, cin = 0
# t =                  244. PASSED. Exp: 10011, Act: 10011
# 	CASE: a = 0110, b = 1101, cin = 1
# t =                  245. PASSED. Exp: 10100, Act: 10100
# 	CASE: a = 0110, b = 1110, cin = 0
# t =                  246. PASSED. Exp: 10100, Act: 10100
# 	CASE: a = 0110, b = 1110, cin = 1
# t =                  247. PASSED. Exp: 10101, Act: 10101
# 	CASE: a = 0110, b = 1111, cin = 0
# t =                  248. PASSED. Exp: 10101, Act: 10101
# 	CASE: a = 0110, b = 1111, cin = 1
# t =                  249. PASSED. Exp: 10110, Act: 10110
# 	CASE: a = 0111, b = 0000, cin = 0
# t =                  250. PASSED. Exp: 00111, Act: 00111
# 	CASE: a = 0111, b = 0000, cin = 1
# t =                  251. PASSED. Exp: 01000, Act: 01000
# 	CASE: a = 0111, b = 0001, cin = 0
# t =                  252. PASSED. Exp: 01000, Act: 01000
# 	CASE: a = 0111, b = 0001, cin = 1
# t =                  253. PASSED. Exp: 01001, Act: 01001
# 	CASE: a = 0111, b = 0010, cin = 0
# t =                  254. PASSED. Exp: 01001, Act: 01001
# 	CASE: a = 0111, b = 0010, cin = 1
# t =                  255. PASSED. Exp: 01010, Act: 01010
# 	CASE: a = 0111, b = 0011, cin = 0
# t =                  256. PASSED. Exp: 01010, Act: 01010
# 	CASE: a = 0111, b = 0011, cin = 1
# t =                  257. PASSED. Exp: 01011, Act: 01011
# 	CASE: a = 0111, b = 0100, cin = 0
# t =                  258. PASSED. Exp: 01011, Act: 01011
# 	CASE: a = 0111, b = 0100, cin = 1
# t =                  259. PASSED. Exp: 01100, Act: 01100
# 	CASE: a = 0111, b = 0101, cin = 0
# t =                  260. PASSED. Exp: 01100, Act: 01100
# 	CASE: a = 0111, b = 0101, cin = 1
# t =                  261. PASSED. Exp: 01101, Act: 01101
# 	CASE: a = 0111, b = 0110, cin = 0
# t =                  262. PASSED. Exp: 01101, Act: 01101
# 	CASE: a = 0111, b = 0110, cin = 1
# t =                  263. PASSED. Exp: 01110, Act: 01110
# 	CASE: a = 0111, b = 0111, cin = 0
# t =                  264. PASSED. Exp: 01110, Act: 01110
# 	CASE: a = 0111, b = 0111, cin = 1
# t =                  265. PASSED. Exp: 01111, Act: 01111
# 	CASE: a = 0111, b = 1000, cin = 0
# t =                  266. PASSED. Exp: 01111, Act: 01111
# 	CASE: a = 0111, b = 1000, cin = 1
# t =                  267. PASSED. Exp: 10000, Act: 10000
# 	CASE: a = 0111, b = 1001, cin = 0
# t =                  268. PASSED. Exp: 10000, Act: 10000
# 	CASE: a = 0111, b = 1001, cin = 1
# t =                  269. PASSED. Exp: 10001, Act: 10001
# 	CASE: a = 0111, b = 1010, cin = 0
# t =                  270. PASSED. Exp: 10001, Act: 10001
# 	CASE: a = 0111, b = 1010, cin = 1
# t =                  271. PASSED. Exp: 10010, Act: 10010
# 	CASE: a = 0111, b = 1011, cin = 0
# t =                  272. PASSED. Exp: 10010, Act: 10010
# 	CASE: a = 0111, b = 1011, cin = 1
# t =                  273. PASSED. Exp: 10011, Act: 10011
# 	CASE: a = 0111, b = 1100, cin = 0
# t =                  274. PASSED. Exp: 10011, Act: 10011
# 	CASE: a = 0111, b = 1100, cin = 1
# t =                  275. PASSED. Exp: 10100, Act: 10100
# 	CASE: a = 0111, b = 1101, cin = 0
# t =                  276. PASSED. Exp: 10100, Act: 10100
# 	CASE: a = 0111, b = 1101, cin = 1
# t =                  277. PASSED. Exp: 10101, Act: 10101
# 	CASE: a = 0111, b = 1110, cin = 0
# t =                  278. PASSED. Exp: 10101, Act: 10101
# 	CASE: a = 0111, b = 1110, cin = 1
# t =                  279. PASSED. Exp: 10110, Act: 10110
# 	CASE: a = 0111, b = 1111, cin = 0
# t =                  280. PASSED. Exp: 10110, Act: 10110
# 	CASE: a = 0111, b = 1111, cin = 1
# t =                  281. PASSED. Exp: 10111, Act: 10111
# 	CASE: a = 1000, b = 0000, cin = 0
# t =                  282. PASSED. Exp: 01000, Act: 01000
# 	CASE: a = 1000, b = 0000, cin = 1
# t =                  283. PASSED. Exp: 01001, Act: 01001
# 	CASE: a = 1000, b = 0001, cin = 0
# t =                  284. PASSED. Exp: 01001, Act: 01001
# 	CASE: a = 1000, b = 0001, cin = 1
# t =                  285. PASSED. Exp: 01010, Act: 01010
# 	CASE: a = 1000, b = 0010, cin = 0
# t =                  286. PASSED. Exp: 01010, Act: 01010
# 	CASE: a = 1000, b = 0010, cin = 1
# t =                  287. PASSED. Exp: 01011, Act: 01011
# 	CASE: a = 1000, b = 0011, cin = 0
# t =                  288. PASSED. Exp: 01011, Act: 01011
# 	CASE: a = 1000, b = 0011, cin = 1
# t =                  289. PASSED. Exp: 01100, Act: 01100
# 	CASE: a = 1000, b = 0100, cin = 0
# t =                  290. PASSED. Exp: 01100, Act: 01100
# 	CASE: a = 1000, b = 0100, cin = 1
# t =                  291. PASSED. Exp: 01101, Act: 01101
# 	CASE: a = 1000, b = 0101, cin = 0
# t =                  292. PASSED. Exp: 01101, Act: 01101
# 	CASE: a = 1000, b = 0101, cin = 1
# t =                  293. PASSED. Exp: 01110, Act: 01110
# 	CASE: a = 1000, b = 0110, cin = 0
# t =                  294. PASSED. Exp: 01110, Act: 01110
# 	CASE: a = 1000, b = 0110, cin = 1
# t =                  295. PASSED. Exp: 01111, Act: 01111
# 	CASE: a = 1000, b = 0111, cin = 0
# t =                  296. PASSED. Exp: 01111, Act: 01111
# 	CASE: a = 1000, b = 0111, cin = 1
# t =                  297. PASSED. Exp: 10000, Act: 10000
# 	CASE: a = 1000, b = 1000, cin = 0
# t =                  298. PASSED. Exp: 10000, Act: 10000
# 	CASE: a = 1000, b = 1000, cin = 1
# t =                  299. PASSED. Exp: 10001, Act: 10001
# 	CASE: a = 1000, b = 1001, cin = 0
# t =                  300. PASSED. Exp: 10001, Act: 10001
